[
 {
  "allow_on_submit": 1, 
  "collapsible": 0, 
  "collapsible_depends_on": null, 
  "default": null, 
  "depends_on": null, 
  "description": null, 
  "docstatus": 0, 
  "doctype": "Custom Field", 
  "dt": "Purchase Order", 
  "fieldname": "workflow_state", 
  "fieldtype": "Link", 
  "hidden": 1, 
  "ignore_user_permissions": 0, 
  "ignore_xss_filter": 0, 
  "in_filter": 0, 
  "in_list_view": 0, 
  "insert_after": "title", 
  "label": "Workflow State", 
  "modified": "2016-06-16 10:22:29.874712", 
  "name": "Purchase Order-workflow_state", 
  "no_copy": 0, 
  "options": "Workflow State", 
  "permlevel": 0, 
  "precision": "", 
  "print_hide": 0, 
  "print_hide_if_no_value": 0, 
  "print_width": null, 
  "read_only": 0, 
  "report_hide": 0, 
  "reqd": 0, 
  "search_index": 0, 
  "unique": 0, 
  "width": null
 }, 
 {
  "allow_on_submit": 0, 
  "collapsible": 0, 
  "collapsible_depends_on": null, 
  "default": null, 
  "depends_on": null, 
  "description": null, 
  "docstatus": 0, 
  "doctype": "Custom Field", 
  "dt": "Employee", 
  "fieldname": "esi_no", 
  "fieldtype": "Data", 
  "hidden": 0, 
  "ignore_user_permissions": 0, 
  "ignore_xss_filter": 0, 
  "in_filter": 0, 
  "in_list_view": 0, 
  "insert_after": "salary_information", 
  "label": "ESI no", 
  "modified": "2016-08-19 21:26:34.466572", 
  "name": "Employee-esi_no", 
  "no_copy": 0, 
  "options": null, 
  "permlevel": 0, 
  "precision": "", 
  "print_hide": 0, 
  "print_hide_if_no_value": 0, 
  "print_width": null, 
  "read_only": 0, 
  "report_hide": 0, 
  "reqd": 0, 
  "search_index": 0, 
  "unique": 1, 
  "width": null
 }, 
 {
  "allow_on_submit": 0, 
  "collapsible": 0, 
  "collapsible_depends_on": null, 
  "default": null, 
  "depends_on": null, 
  "description": null, 
  "docstatus": 0, 
  "doctype": "Custom Field", 
  "dt": "Employee", 
  "fieldname": "epf_no", 
  "fieldtype": "Data", 
  "hidden": 0, 
  "ignore_user_permissions": 0, 
  "ignore_xss_filter": 0, 
  "in_filter": 0, 
  "in_list_view": 0, 
  "insert_after": "esi_no", 
  "label": "EPF no", 
  "modified": "2016-08-19 21:27:56.130810", 
  "name": "Employee-epf_no", 
  "no_copy": 0, 
  "options": null, 
  "permlevel": 0, 
  "precision": "", 
  "print_hide": 0, 
  "print_hide_if_no_value": 0, 
  "print_width": null, 
  "read_only": 0, 
  "report_hide": 0, 
  "reqd": 0, 
  "search_index": 0, 
  "unique": 1, 
  "width": null
 }, 
 {
  "allow_on_submit": 0, 
  "collapsible": 0, 
  "collapsible_depends_on": null, 
  "default": null, 
  "depends_on": null, 
  "description": null, 
  "docstatus": 0, 
  "doctype": "Custom Field", 
  "dt": "Employee", 
  "fieldname": "aadhar_no", 
  "fieldtype": "Data", 
  "hidden": 0, 
  "ignore_user_permissions": 0, 
  "ignore_xss_filter": 0, 
  "in_filter": 0, 
  "in_list_view": 0, 
  "insert_after": "personal_details", 
  "label": "Aadhar no", 
  "modified": "2016-08-19 00:00:00", 
  "name": "Employee-aadhar_no", 
  "no_copy": 0, 
  "options": null, 
  "permlevel": 0, 
  "precision": "", 
  "print_hide": 0, 
  "print_hide_if_no_value": 0, 
  "print_width": null, 
  "read_only": 0, 
  "report_hide": 0, 
  "reqd": 0, 
  "search_index": 0, 
  "unique": 1, 
  "width": null
 }, 
 {
  "allow_on_submit": 0, 
  "collapsible": 0, 
  "collapsible_depends_on": null, 
  "default": null, 
  "depends_on": null, 
  "description": null, 
  "docstatus": 0, 
  "doctype": "Custom Field", 
  "dt": "Salary Slip", 
  "fieldname": "esi_no", 
  "fieldtype": "Data", 
  "hidden": 0, 
  "ignore_user_permissions": 0, 
  "ignore_xss_filter": 0, 
  "in_filter": 0, 
  "in_list_view": 0, 
  "insert_after": "letter_head", 
  "label": "ESI no", 
  "modified": "2016-08-20 19:55:51.274272", 
  "name": "Salary Slip-esi_no", 
  "no_copy": 0, 
  "options": null, 
  "permlevel": 0, 
  "precision": "", 
  "print_hide": 0, 
  "print_hide_if_no_value": 0, 
  "print_width": null, 
  "read_only": 1, 
  "report_hide": 0, 
  "reqd": 0, 
  "search_index": 0, 
  "unique": 1, 
  "width": null
 }, 
 {
  "allow_on_submit": 0, 
  "collapsible": 0, 
  "collapsible_depends_on": null, 
  "default": null, 
  "depends_on": null, 
  "description": null, 
  "docstatus": 0, 
  "doctype": "Custom Field", 
  "dt": "Salary Slip", 
  "fieldname": "epf_no", 
  "fieldtype": "Data", 
  "hidden": 0, 
  "ignore_user_permissions": 0, 
  "ignore_xss_filter": 0, 
  "in_filter": 0, 
  "in_list_view": 0, 
  "insert_after": "esi_no", 
  "label": "EPF no", 
  "modified": "2016-08-20 19:55:51.489966", 
  "name": "Salary Slip-epf_no", 
  "no_copy": 0, 
  "options": null, 
  "permlevel": 0, 
  "precision": "", 
  "print_hide": 0, 
  "print_hide_if_no_value": 0, 
  "print_width": null, 
  "read_only": 1, 
  "report_hide": 0, 
  "reqd": 0, 
  "search_index": 0, 
  "unique": 1, 
  "width": null
 }, 
 {
  "allow_on_submit": 0, 
  "collapsible": 0, 
  "collapsible_depends_on": null, 
  "default": null, 
  "depends_on": null, 
  "description": null, 
  "docstatus": 0, 
  "doctype": "Custom Field", 
  "dt": "Salary Slip", 
  "fieldname": "aadhar_no", 
  "fieldtype": "Data", 
  "hidden": 0, 
  "ignore_user_permissions": 0, 
  "ignore_xss_filter": 0, 
  "in_filter": 1, 
  "in_list_view": 0, 
  "insert_after": "epf_no", 
  "label": "Aadhar no", 
  "modified": "2016-08-20 19:55:51.703075", 
  "name": "Salary Slip-aadhar_no", 
  "no_copy": 0, 
  "options": null, 
  "permlevel": 0, 
  "precision": "", 
  "print_hide": 0, 
  "print_hide_if_no_value": 0, 
  "print_width": null, 
  "read_only": 1, 
  "report_hide": 0, 
  "reqd": 0, 
  "search_index": 0, 
  "unique": 1, 
  "width": null
 }
]